id,name,model_id:id,group_id:id,perm_read,perm_write,perm_create,perm_unlink
l10n_mn_hr_attendance_repair.hr_attendance_repair_reason,attendance.repair.reason,model_hr_attendance_repair_reason,base.group_user,1,0,0,0
hr_attendance_repair_reason_hr_manager,attendance.repair.reason.hr.manager,model_hr_attendance_repair_reason,hr.group_hr_manager,1,1,1,1
hr_attendance_detail_user,hr.attendance.detail,model_hr_attendance_detail,base.group_user,1,1,1,1
